…
``` r
df <- 
  read_lines("data/day7a.txt") |> 
  as_tibble() |> 
  mutate(
    value = str_remove(value, "\\$ "),
    cur_dir = NA_character_,
    file_name = NA_character_,
    file_size = NA_integer_
  )

df
```

    ## # A tibble: 1,087 × 4
    ##    value        cur_dir file_name file_size
    ##    <chr>        <chr>   <chr>         <int>
    ##  1 cd home      <NA>    <NA>             NA
    ##  2 ls           <NA>    <NA>             NA
    ##  3 dir fwbjchs  <NA>    <NA>             NA
    ##  4 dir hmnpr    <NA>    <NA>             NA
    ##  5 dir jtrbrcjl <NA>    <NA>             NA
    ##  6 dir lcgv     <NA>    <NA>             NA
    ##  7 dir ldqc     <NA>    <NA>             NA
    ##  8 dir vrvl     <NA>    <NA>             NA
    ##  9 cd fwbjchs   <NA>    <NA>             NA
    ## 10 ls           <NA>    <NA>             NA
    ## # … with 1,077 more rows
…
